[
   {
      "id":14,
      "label":"*ley-",
      "iso":"ine-pro",
      "lang":"Proto-Indo-European",
      "descendants":[
         0
      ],
      "pos":"",
      "gloss":"to be slippery, glide, streak, to avoid, elude, decline, shrink away from, recede, to elude, avoid, shrink from",
      "realancestors":[
         
      ]
   },
   {
      "id":0,
      "label":"*leyp-",
      "iso":"ine-pro",
      "lang":"Proto-Indo-European",
      "descendants":[
         12,
         8
      ],
      "pos":"",
      "gloss":"",
      "realancestors":[
         14
      ]
   },
   {
      "id":12,
      "label":"*lībaną",
      "iso":"gem-pro",
      "lang":"Proto-Germanic",
      "descendants":[
         8
      ],
      "pos":"Verb",
      "gloss":"To remain, to be left.",
      "realancestors":[
         0,
         14
      ]
   },
   {
      "id":8,
      "label":"*lībą",
      "iso":"gem-pro",
      "lang":"Proto-Germanic",
      "descendants":[
         6,
         10
      ],
      "pos":"Noun",
      "gloss":"Body. Life.",
      "realancestors":[
         0,
         12,
         14
      ]
   },
   {
      "id":6,
      "label":"līf",
      "iso":"ang",
      "lang":"Old English",
      "descendants":[
         2
      ],
      "pos":"",
      "gloss":"",
      "realancestors":[
         0,
         8,
         12,
         14
      ]
   },
   {
      "id":10,
      "label":"lif",
      "iso":"ang",
      "lang":"Old English",
      "descendants":[
         2
      ],
      "pos":"Noun",
      "gloss":"Life.",
      "realancestors":[
         0,
         8,
         12,
         14
      ]
   },
   {
      "id":2,
      "label":"lyf",
      "iso":"enm",
      "lang":"Middle English",
      "descendants":[
         4
      ],
      "pos":"Noun",
      "gloss":"Life.",
      "realancestors":[
         0,
         6,
         8,
         10,
         12,
         14
      ]
   },
   {
      "id":4,
      "label":"life",
      "iso":"eng",
      "lang":"English",
      "descendants":[
         
      ],
      "pos":"Noun",
      "gloss":"(biology) A status possessed by any of a number of entities, including animals, plants, fungi, bacteria, and sometimes viruses, which have the properties of replication and metabolism.. (colloquial) A life sentence; a term of imprisonment of a convict until his or her death.. (countable) The fact of a particular individual being alive; a living individual.. (informal) Social life.. [...]",
      "realancestors":[
         0,
         2,
         6,
         8,
         10,
         12,
         14
      ]
   }
]